{
  "index" : {
    
    "footer" : "Noob.UI copyright @ 2015",
    "header" : "Noob.UI"

  },

  "catalog1" : {

    "Одежда, обувь, аксессуары": "718 635",
    "Детская одежда и обувь": "419 222",
    "Товары для детей и игрушки": "147 400",
    "Часы и украшения": "80 148",
    "Красота и здоровье": "64 244",
    "Товары для детей и игрушки2": "86 095",
    "Детская одежда и обувь2": "64 244",
    "Часы и украшения 2": "45 879"

  },

  "catalog2" : {

    "Запчасти и аксессуары": "621 932",
    "Автомобили": "38 744",
    "Грузовики и спецтехника": "6 784",
    "Мотоциклы и мототехника": "3 807",
    "Водный транспорт": "23",
    "Грузовики и спецтехника2": "6 784",
    "Мотоциклы и мототехника2": "3 807",
    "Водный транспорт2": "23"

  },

  "catalog3" : {

    "Коллекционирование": "718 635",
    "Книги и журналы": "419 222",
    "Спорт и отдых": "147 400",
    "Музыкальные инструменты": "80 148",
    "Охота и рыбалка": "64 244",
    "Охота и рыбалка2": "64 244"

  },

  "catalog4" : {

    "Ремонт и строительство": "718 635",
    "Мебель и интерьер": "419 222",
    "Посуда и товары для кухни": "147 400",
    "Бытовая техника": "80 148",
    "Продукты питания": "64 244"

  },

  "catalog5" : {

    "Товары для компьютера": "718 635",
    "Аудио и видео": "419 222",
    "Фототехника": "147 400",
    "Оргтехника и расходники": "80 148"

  },

  "catalog6" : {

    "Оборудование для бизнеса": "621 932",
    "Готовый бизнес": "38 744"

  },

  "catalog7" : {

    "Предложения услуг": "718 635",
    "Запросы на услуги": "419 222"

  },

  "catalog8" : {

    "Квартиры": "718 635",
    "Комнаты": "419 222",
    "Дома, дачи, коттеджи": "147 400",
    "Земельные участки": "80 148",
    "Коммерческая недвижимость": "64 244",
    "Дома, дачи, коттеджи2": "147 400",
    "Земельные участки2": "80 148",
    "Коммерческая недвижимость2": "64 244"

  },

  "catalog9" : {

    "Резюме": "718 635",
    "Вакансии": "419 222"

  },

  "catalog10" : {

    "Собаки": "621 932",
    "Кошки": "38 744",
    "Аквариум": "6 784",
    "Другие животные": "3 807"

  }
}